…
This post will be for reproducing a portion of this analysis using the brms package in R.

Data

I discovered the data for this study at the following website:
http://people.brandeis.edu/~kgraddy/data.html

Bringing this data into R is extremely easy. The data is what was used to perform the original estimation so it is already prepared for us. All we need to do is read it into our R environment:

library(tidyverse)

fulton <- read_tsv("http://people.brandeis.edu/~kgraddy/datasets/fish.out")
fulton

## # A tibble: 111 x 16
##     day1  day2  day3  day4   date stormy mixed   price   qty rainy  cold
##    <dbl> <dbl> <dbl> <dbl>  <dbl>  <dbl> <dbl>   <dbl> <dbl> <dbl> <dbl>
##  1     1     0     0     0 911202      1     0 -0.431   8.99     1     0
##  2     0     1     0     0 911203      1     0  0       7.71     0     0
##  3     0     0     1     0 911204      0     1  0.0723  8.35     1     1
##  4     0     0     0     1 911205      1     0  0.247   8.66     0     1
##  5     0     0     0     0 911206      1     0  0.664   7.84     0     1
##  6     1     0     0     0 911209      0     0 -0.207   9.30     0     0
##  7     0     1     0     0 911210      0     1 -0.116   8.92     0     0
##  8     0     0     1     0 911211      0     0 -0.260   9.11     1     0
##  9     0     0     0     1 911212      0     1 -0.117   8.31     0     0
## 10     0     0     0     0 911213      0     0 -0.342   9.21     0     0
## # … with 101 more rows, and 5 more variables: windspd <dbl>,
## #   windspd2 <dbl>, pricelevel <dbl>, totr <dbl>, tots <dbl>
…
