jduncstats: Chapter 1
…
All 4 chains finished successfully.
Mean chain execution time: 12.9 seconds.
Total execution time: 14.4 seconds.

fit$summary()

# A tibble: 152 x 10
   variable   mean median    sd   mad     q5    q95  rhat ess_bulk
   <chr>     <dbl>  <dbl> <dbl> <dbl>  <dbl>  <dbl> <dbl>    <dbl>
 1 lp__     -481.  -481.  1.13  0.715 -483.  -480.   1.00    4770.
 2 lambda_1   17.8   17.7 0.678 0.646   16.7   18.8  1.00    6623.
 3 lambda_2   22.7   22.7 0.981 0.889   21.2   24.2  1.00    8000.
 4 lp[1]    -512.  -511.  9.47  8.46  -529.  -500.   1.00    9227.
 5 lp[2]    -511.  -509.  9.16  8.10  -526.  -499.   1.00    9025.
 6 lp[3]    -512.  -510.  9.13  8.14  -527.  -500.   1.00    9516.
 7 lp[4]    -509.  -507.  8.71  7.58  -524.  -498.   1.00    9131.
 8 lp[5]    -510.  -508.  8.67  7.61  -524.  -499.   1.00    9471.
 9 lp[6]    -506.  -505.  8.25  7.01  -520.  -496.   1.00    9095.
10 lp[7]    -510.  -509.  8.48  7.46  -525.  -499.   1.00    9637.
#  with 142 more rows, and 1 more variable: ess_tail <dbl>
…
Our analysis also returned a distribution for \(\tau\). Its posterior distribution looks a little different from the other two because it is a discrete random variable, so it doesnt assign probabilities to intervals. We can see that near day 46, there was a 50% chance that the users behaviour changed. Had no change occurred, or had the change been gradual over time, the posterior distribution of \(\tau\) would have been more spread out, reflecting that many days were plausible candidates for \(\tau\). By contrast, in the actual results we see that only three or four days make any sense as potential transition points.

1.4.4 What Good Are Samples from the Posterior, Anyways?

Now for calculating the expected values:

predictions <- fit$draws("expected") %>% 
  as_draws_df() %>% 
  spread_draws(expected[day])

predictions

# A tibble: 888,000 x 5
# Groups:   day [74]
     day expected .chain .iteration .draw
   <int>    <dbl>  <int>      <int> <int>
 1     1     18.8      1          1     1
 2     1     16.8      1          2     2
 3     1     17.9      1          3     3
 4     1     18.3      1          4     4
 5     1     17.3      1          5     5
 6     1     17.8      1          6     6
 7     1     17.8      1          7     7
 8     1     17.7      1          8     8
 9     1     16.4      1          9     9
10     1     17.9      1         10    10
#  with 887,990 more rows
…
